{
  "posts": [
    {
      "title": "มาทบทวนเรื่อง Margin และ Padding กันอีกสักนิด",
      "feature_image": "https://www.mikkipastel.com/content/images/2020/04/IMG_0166.PNG",
      "custom_excerpt": "แรกๆที่เราเขียน Android มักจะแยก margin และ padding ไม่ค่อยถูก พอเป็น Android Developer ไปเรื่อยๆก็จะแยกออกหล่ะ แล้วเห็นบล็อกพี่เอกเขียนหัวข้อนี้ แต่ยังไม่ได้อ่าน ก็เลยลองวาดๆเขียนๆดู",
      "published_at": "2020-05-08T12:10:00.000+07:00",
      "tags": [
        {
          "id": "5e4a503b1876cb04e896eea3",
          "name": "android",
          "slug": "android",
          "description": "เราเป็นคนใช้แอนดรอยด์มาหลายปีดีดัก ตั้งแต่สมัยฝึกงานเลยนะเออ และก็เป็น Android Development จากตอนนั้นมาถึงตอนนี้",
          "feature_image": "https://images.unsplash.com/photo-1541345023926-55d6e0853f4b?ixlib=rb-1.2.1&q=80&fm=jpg&crop=entropy&cs=tinysrgb&w=2000&fit=max&ixid=eyJhcHBfaWQiOjExNzczfQ",
          "visibility": "public",
          "meta_title": null,
          "meta_description": null,
          "url": "https://www.mikkipastel.com/tag/android/"
        }
      ],
      "url": "https://www.mikkipastel.com/android-margin-and-padding/"
    },
    {
      "title": "ครั้งแรกกับงาน MEET THE EXPERT #1 ของ LINE Developers Thailand",
      "feature_image": "https://www.mikkipastel.com/content/images/2020/04/93425214_649239362587646_1688476198109184_o.jpg",
      "custom_excerpt": "ครั้งแรกกับการไลฟ์ของพี่ตี๋พี่แทน และพี่ๆ LAE ทั้ง 5 ท่าน มาแบบสดๆ ให้เราดูถึงที่บ้านเลย เริ่มไลฟ์ตอนเย็นหกโมง หลังเราเลิกงานจาก work from home พอดีเลย เย้ๆ",
      "published_at": "2020-04-30T20:33:18.000+07:00",
      "tags": [
        {
          "id": "5e4a503b1876cb04e896eea4",
          "name": "event",
          "slug": "event",
          "description": "กิจกรรมต่างๆที่เราได้ไปเข้าร่วมแล้วจดบันทึก มีทั้งสายเดฟ และไม่เดฟ ทั้งออนไลน์และออฟไลน์",
          "feature_image": "https://www.mikkipastel.com/content/images/2020/02/80117632_2807913119273082_9129205127998078976_o.jpg",
          "visibility": "public",
          "meta_title": null,
          "meta_description": null,
          "url": "https://www.mikkipastel.com/tag/event/"
        }
      ],
      "url": "https://www.mikkipastel.com/line-developer-thailand-meet-the-expert-01/"
    },
    {
      "title": "มาสรุปสิ่งที่ได้จาก js21days challenge [week3]",
      "feature_image": "https://www.mikkipastel.com/content/images/2020/04/maxresdefault-2.jpg",
      "custom_excerpt": "มาถึงช่วงโค้งสุดท้ายของคอร์สนี้กันแล้วนะจ๊ะ เลยมาเล่าเรื่องของการทำเว็บส่งการบ้านแบบสั้นๆด้วยจ้า เราจะใช้ Firebase Hosting เพื่อเพิ่ม site ใหม่ในโปรเจก Firebase ส่วนตัวของเรา จะได้เว็บส่งการบ้านนี้มา",
      "published_at": "2020-04-29T09:15:00.000+07:00",
      "tags": [
        {
          "id": "5e4b65391876cb04e896f081",
          "name": "course & workshop",
          "slug": "course-workshop",
          "description": "มีทั้งการไปศึกษาดูงาน กิจกรรม workshop แล้ว การลงเรียนบางสิ่ง ทั้ง offline และ online อีกทั้งรวบรวมสรุปเนื้อหาที่สำคัญจากกิจกรรมนั้นๆ",
          "feature_image": "https://www.mikkipastel.com/content/images/2020/02/20160501_085332.jpg",
          "visibility": "public",
          "meta_title": null,
          "meta_description": null,
          "url": "https://www.mikkipastel.com/tag/course-workshop/"
        },
        {
          "id": "5e4a503b1876cb04e896eea5",
          "name": "programming",
          "slug": "programming",
          "description": "นอกเหนือจากการเป็น Android Developer แล้ว ยังทำ programming อื่นๆอีกนะ",
          "feature_image": "https://images.unsplash.com/photo-1484417894907-623942c8ee29?ixlib=rb-1.2.1&q=80&fm=jpg&crop=entropy&cs=tinysrgb&w=2000&fit=max&ixid=eyJhcHBfaWQiOjExNzczfQ",
          "visibility": "public",
          "meta_title": null,
          "meta_description": null,
          "url": "https://www.mikkipastel.com/tag/programming/"
        }
      ],
      "url": "https://www.mikkipastel.com/js21days-challenge-week3/"
    },
    {
      "title": "มาเรียนคอร์สที่ Content Shifu แจกช่วง COVID-19 กับ SEO Keyword Research",
      "feature_image": "https://www.mikkipastel.com/content/images/2020/03/IMG_0136.jpg",
      "custom_excerpt": "พอดีเราสมัคร email newsletter ของ Content Shifu ไว้ แล้วเจอว่ามีคอร์สฟรีแจกให้ช่วง COVID-19 นั้น มี 2 course เช่นกันคือ SEO Keyword และ Website Conversion",
      "published_at": "2020-04-26T13:36:11.000+07:00",
      "tags": [
        {
          "id": "5e4b65391876cb04e896f081",
          "name": "course & workshop",
          "slug": "course-workshop",
          "description": "มีทั้งการไปศึกษาดูงาน กิจกรรม workshop แล้ว การลงเรียนบางสิ่ง ทั้ง offline และ online อีกทั้งรวบรวมสรุปเนื้อหาที่สำคัญจากกิจกรรมนั้นๆ",
          "feature_image": "https://www.mikkipastel.com/content/images/2020/02/20160501_085332.jpg",
          "visibility": "public",
          "meta_title": null,
          "meta_description": null,
          "url": "https://www.mikkipastel.com/tag/course-workshop/"
        }
      ],
      "url": "https://www.mikkipastel.com/seo-keyword-research-by-content-shifu/"
    },
    {
      "title": "มาสรุปสิ่งที่ได้จาก js21days challenge [week2]",
      "feature_image": "https://www.mikkipastel.com/content/images/2020/04/maxresdefault.jpg",
      "custom_excerpt": "หลังจากจบ week แรกแล้ว มาต่อ day 8 กันต่อเลยดีกว่า",
      "published_at": "2020-04-20T19:40:33.000+07:00",
      "tags": [
        {
          "id": "5e4b65391876cb04e896f081",
          "name": "course & workshop",
          "slug": "course-workshop",
          "description": "มีทั้งการไปศึกษาดูงาน กิจกรรม workshop แล้ว การลงเรียนบางสิ่ง ทั้ง offline และ online อีกทั้งรวบรวมสรุปเนื้อหาที่สำคัญจากกิจกรรมนั้นๆ",
          "feature_image": "https://www.mikkipastel.com/content/images/2020/02/20160501_085332.jpg",
          "visibility": "public",
          "meta_title": null,
          "meta_description": null,
          "url": "https://www.mikkipastel.com/tag/course-workshop/"
        },
        {
          "id": "5e4a503b1876cb04e896eea5",
          "name": "programming",
          "slug": "programming",
          "description": "นอกเหนือจากการเป็น Android Developer แล้ว ยังทำ programming อื่นๆอีกนะ",
          "feature_image": "https://images.unsplash.com/photo-1484417894907-623942c8ee29?ixlib=rb-1.2.1&q=80&fm=jpg&crop=entropy&cs=tinysrgb&w=2000&fit=max&ixid=eyJhcHBfaWQiOjExNzczfQ",
          "visibility": "public",
          "meta_title": null,
          "meta_description": null,
          "url": "https://www.mikkipastel.com/tag/programming/"
        }
      ],
      "url": "https://www.mikkipastel.com/js21days-challenge-week2/"
    },
    {
      "title": "มาสรุปสิ่งที่ได้จาก js21days challenge [week1]",
      "feature_image": "https://www.mikkipastel.com/content/images/2020/04/maxresdefault-1.jpg",
      "custom_excerpt": "รอบแรกลืมกดสมัครคอร์สฟรีและเต็มไว้ในนาทีแรก รอบสองไม่พลาดที่จะกดสมัครจ้า เผื่อเราจะถนัด js ขึ้นมาบ้าง (รอบนี้เหมือนรับสมัครเรื่อยๆยังไม่ปิดรับน้าา)",
      "published_at": "2020-04-15T09:33:12.000+07:00",
      "tags": [
        {
          "id": "5e4b65391876cb04e896f081",
          "name": "course & workshop",
          "slug": "course-workshop",
          "description": "มีทั้งการไปศึกษาดูงาน กิจกรรม workshop แล้ว การลงเรียนบางสิ่ง ทั้ง offline และ online อีกทั้งรวบรวมสรุปเนื้อหาที่สำคัญจากกิจกรรมนั้นๆ",
          "feature_image": "https://www.mikkipastel.com/content/images/2020/02/20160501_085332.jpg",
          "visibility": "public",
          "meta_title": null,
          "meta_description": null,
          "url": "https://www.mikkipastel.com/tag/course-workshop/"
        },
        {
          "id": "5e4a503b1876cb04e896eea5",
          "name": "programming",
          "slug": "programming",
          "description": "นอกเหนือจากการเป็น Android Developer แล้ว ยังทำ programming อื่นๆอีกนะ",
          "feature_image": "https://images.unsplash.com/photo-1484417894907-623942c8ee29?ixlib=rb-1.2.1&q=80&fm=jpg&crop=entropy&cs=tinysrgb&w=2000&fit=max&ixid=eyJhcHBfaWQiOjExNzczfQ",
          "visibility": "public",
          "meta_title": null,
          "meta_description": null,
          "url": "https://www.mikkipastel.com/tag/programming/"
        }
      ],
      "url": "https://www.mikkipastel.com/js21days-challenge-week1/"
    },
    {
      "title": "มาค้นพบจุดแข็งของตัวเอง กับหนังสือ Strengths Finder 2.0 (เจาะจุดแข็ง 2.0)",
      "feature_image": "https://www.mikkipastel.com/content/images/2020/02/1_06tuJp0pZn4B5UpjJmrzpg.png",
      "custom_excerpt": "เรื่องเกิดจากการอัด podcast กับออมที่ recap session ในรายการ Coding Universe ที่ได้ไปฟังมาจากงาน CTC2020\n",
      "published_at": "2020-04-09T17:03:00.000+07:00",
      "tags": [
        {
          "id": "5e4ba0b01876cb04e896f134",
          "name": "book",
          "slug": "book",
          "description": "อ่านหนังสือบ้างอะไรบ้าง อ่านแล้วเล่าให้ฟังสักนิด",
          "feature_image": "https://images.unsplash.com/photo-1507842217343-583bb7270b66?ixlib=rb-1.2.1&q=80&fm=jpg&crop=entropy&cs=tinysrgb&w=2000&fit=max&ixid=eyJhcHBfaWQiOjExNzczfQ",
          "visibility": "public",
          "meta_title": null,
          "meta_description": null,
          "url": "https://www.mikkipastel.com/tag/book/"
        }
      ],
      "url": "https://www.mikkipastel.com/review-strengths-finder-2-0-book/"
    },
    {
      "title": "เติมไฟอยู่ที่บ้านกับงาน Firebase Study Jam",
      "feature_image": "https://www.mikkipastel.com/content/images/2020/04/Screen-Shot-2020-04-05-at-13.06.07.png",
      "custom_excerpt": "ตื่นเต้นสุดๆกับการร่วมงาน Firebase Study Jam ที่บ้านจ้า ในวันอาทิตย์หน้าร้อน 5 เมษายน 2563 ในเวลาบ่ายโมงตรงถึงสามโมง เสร็จปุ๊ปดู Netfilx ต่อ เอ้ยย สรุปบล็อกสิ",
      "published_at": "2020-04-05T21:29:10.000+07:00",
      "tags": [
        {
          "id": "5e4a503b1876cb04e896eea4",
          "name": "event",
          "slug": "event",
          "description": "กิจกรรมต่างๆที่เราได้ไปเข้าร่วมแล้วจดบันทึก มีทั้งสายเดฟ และไม่เดฟ ทั้งออนไลน์และออฟไลน์",
          "feature_image": "https://www.mikkipastel.com/content/images/2020/02/80117632_2807913119273082_9129205127998078976_o.jpg",
          "visibility": "public",
          "meta_title": null,
          "meta_description": null,
          "url": "https://www.mikkipastel.com/tag/event/"
        },
        {
          "id": "5e4a503b1876cb04e896eea6",
          "name": "firebase",
          "slug": "firebase",
          "description": "หนึ่งในสกิลที่สายเดฟต้องมี นั่นคือ Firebase นั่นเองงง",
          "feature_image": "https://www.mikkipastel.com/content/images/2020/05/social.png",
          "visibility": "public",
          "meta_title": null,
          "meta_description": null,
          "url": "https://www.mikkipastel.com/tag/firebase/"
        }
      ],
      "url": "https://www.mikkipastel.com/firebase-study-jam-2020/"
    },
    {
      "title": "มาทบทวนการทำ chatbot กับคอร์ส Building LINE Chatbot using DialogFlow",
      "feature_image": "https://www.mikkipastel.com/content/images/2020/03/IMG_0083.JPG",
      "custom_excerpt": "ทำ chatbot เองก็แล้วแบบงูๆปลาๆ เลยขอเรียนทบทวนสักรอบนึง ผ่านคอร์สฟรีของ Skooldio จ้า",
      "published_at": "2020-03-31T14:20:00.000+07:00",
      "tags": [
        {
          "id": "5e4b65391876cb04e896f081",
          "name": "course & workshop",
          "slug": "course-workshop",
          "description": "มีทั้งการไปศึกษาดูงาน กิจกรรม workshop แล้ว การลงเรียนบางสิ่ง ทั้ง offline และ online อีกทั้งรวบรวมสรุปเนื้อหาที่สำคัญจากกิจกรรมนั้นๆ",
          "feature_image": "https://www.mikkipastel.com/content/images/2020/02/20160501_085332.jpg",
          "visibility": "public",
          "meta_title": null,
          "meta_description": null,
          "url": "https://www.mikkipastel.com/tag/course-workshop/"
        },
        {
          "id": "5e4cfee9622314492ff86f80",
          "name": "chatbot",
          "slug": "chatbot",
          "description": "หนึ่งในงานอดิเรกของเจ้าบล็อก นั่นคือจะทำ chatbot ปีละครั้งนั่นเองงง",
          "feature_image": "https://images.unsplash.com/photo-1577563908411-5077b6dc7624?ixlib=rb-1.2.1&q=80&fm=jpg&crop=entropy&cs=tinysrgb&w=2000&fit=max&ixid=eyJhcHBfaWQiOjExNzczfQ",
          "visibility": "public",
          "meta_title": null,
          "meta_description": null,
          "url": "https://www.mikkipastel.com/tag/chatbot/"
        }
      ],
      "url": "https://www.mikkipastel.com/online-course-building-line-chatbot-using-dialogflow/"
    },
    {
      "title": "จดบันทึก online meetup จากงาน iCreator Meetup ครั้งที่ 8",
      "feature_image": "https://www.mikkipastel.com/content/images/2020/03/Screen-Shot-2020-03-23-at-19.18.08.png",
      "custom_excerpt": "ในภาวะ Work From Home เลยเข้าไปฟัง online meetup จากที่บ้าน ชื่องานว่า \"iCreator Meetup ครั้งที่ 8 อัปเดทเทรนด์การทำคอนเทนต์ในช่วง โควิด-19 และการออกแบบ UX/UI ที่น่าจับตา\"",
      "published_at": "2020-03-28T15:18:35.000+07:00",
      "tags": [
        {
          "id": "5e4a503b1876cb04e896eea4",
          "name": "event",
          "slug": "event",
          "description": "กิจกรรมต่างๆที่เราได้ไปเข้าร่วมแล้วจดบันทึก มีทั้งสายเดฟ และไม่เดฟ ทั้งออนไลน์และออฟไลน์",
          "feature_image": "https://www.mikkipastel.com/content/images/2020/02/80117632_2807913119273082_9129205127998078976_o.jpg",
          "visibility": "public",
          "meta_title": null,
          "meta_description": null,
          "url": "https://www.mikkipastel.com/tag/event/"
        }
      ],
      "url": "https://www.mikkipastel.com/icreator-meetup-08/"
    },
    {
      "title": "Work From Home ในช่วง COVID - 19",
      "feature_image": "https://www.mikkipastel.com/content/images/2020/03/IMG_0061.PNG",
      "custom_excerpt": "จริงๆเท่าที่ได้ยินคร่าวๆ ในงาน CTC2020 นั้นมี session เกี่ยวกับ work from home และเนื่องด้วยไวรัสโควิท-19 ด้วย ทำให้หลายๆคนรวมทั้งเรานั้น ต้อง work from home ซึ่งถือเป็นเรื่องที่ใหม่ที่ต้องปรับตัวกันในช่วงนี้",
      "published_at": "2020-03-27T12:22:46.000+07:00",
      "tags": [
        {
          "id": "5e4b5a881876cb04e896f070",
          "name": "lifestyle",
          "slug": "lifestyle",
          "description": "เนื่องจากบล็อกนี้ไม่ใช่บล็อกที่นำเสนอเรื่อง IT หรือกิจกรรมต่างๆที่เข้าร่วมเพียงอย่างเดียว ดังนั้นจะมีเรื่องเกี่ยวกับ lifestyle อื่นๆด้วย เช่น การกิน ดูหนัง อ่านหนังสือ รีวิวของต่างๆ",
          "feature_image": "https://images.unsplash.com/photo-1533525801715-1f3764669187?ixlib=rb-1.2.1&q=80&fm=jpg&crop=entropy&cs=tinysrgb&w=2000&fit=max&ixid=eyJhcHBfaWQiOjExNzczfQ",
          "visibility": "public",
          "meta_title": null,
          "meta_description": null,
          "url": "https://www.mikkipastel.com/tag/lifestyle/"
        }
      ],
      "url": "https://www.mikkipastel.com/work-from-home-covid-19/"
    },
    {
      "title": "วิธีการมุ้ปอรออกจาก Fabric ไป Firebase แบบง่ายๆ",
      "feature_image": "https://www.mikkipastel.com/content/images/2020/03/Screen-Shot-2020-03-12-at-16.57.09.png",
      "custom_excerpt": "วันที่ 31 มีนาคม 2563 Fabric จะไม่ support แล้วนะ และ data ข้างในก็จะหายหมดกลับไปดูไม่ได้แล้วนะ",
      "published_at": "2020-03-13T09:01:00.000+07:00",
      "tags": [
        {
          "id": "5e4a503b1876cb04e896eea3",
          "name": "android",
          "slug": "android",
          "description": "เราเป็นคนใช้แอนดรอยด์มาหลายปีดีดัก ตั้งแต่สมัยฝึกงานเลยนะเออ และก็เป็น Android Development จากตอนนั้นมาถึงตอนนี้",
          "feature_image": "https://images.unsplash.com/photo-1541345023926-55d6e0853f4b?ixlib=rb-1.2.1&q=80&fm=jpg&crop=entropy&cs=tinysrgb&w=2000&fit=max&ixid=eyJhcHBfaWQiOjExNzczfQ",
          "visibility": "public",
          "meta_title": null,
          "meta_description": null,
          "url": "https://www.mikkipastel.com/tag/android/"
        },
        {
          "id": "5e4a503b1876cb04e896eea6",
          "name": "firebase",
          "slug": "firebase",
          "description": "หนึ่งในสกิลที่สายเดฟต้องมี นั่นคือ Firebase นั่นเองงง",
          "feature_image": "https://www.mikkipastel.com/content/images/2020/05/social.png",
          "visibility": "public",
          "meta_title": null,
          "meta_description": null,
          "url": "https://www.mikkipastel.com/tag/firebase/"
        }
      ],
      "url": "https://www.mikkipastel.com/move-on-fabric-to-firebase/"
    },
    {
      "title": "จับคุณผีมาช่วยในการทำเว็บบล็อกกันเถอะ กับ Ghost CMS",
      "feature_image": "https://www.mikkipastel.com/content/images/2020/02/Screen-Shot-2020-02-16-at-21.44.34-1.png",
      "custom_excerpt": "เรื่องราวการดุ๊ปบล็อกมาที่ใหม่ ซึ่งเรื่องนี้มันยาว เรียกย้ายก็ไม่ได้ ตอนนี้ยังดุ๊ป แค่ content ใหม่ๆจะมีที่นี่กับ blacklens pub และอื่นๆใน medium",
      "published_at": "2020-03-07T22:08:38.000+07:00",
      "tags": [
        {
          "id": "5e4a503b1876cb04e896eea5",
          "name": "programming",
          "slug": "programming",
          "description": "นอกเหนือจากการเป็น Android Developer แล้ว ยังทำ programming อื่นๆอีกนะ",
          "feature_image": "https://images.unsplash.com/photo-1484417894907-623942c8ee29?ixlib=rb-1.2.1&q=80&fm=jpg&crop=entropy&cs=tinysrgb&w=2000&fit=max&ixid=eyJhcHBfaWQiOjExNzczfQ",
          "visibility": "public",
          "meta_title": null,
          "meta_description": null,
          "url": "https://www.mikkipastel.com/tag/programming/"
        }
      ],
      "url": "https://www.mikkipastel.com/new-webblog-on-ghost-cms/"
    },
    {
      "title": "Recommend Material Components in your app",
      "feature_image": "https://www.mikkipastel.com/content/images/2020/02/1_XpfxsLhqoX7gi1aFeot_fA-1.png",
      "custom_excerpt": "This is all summary about my session in Android Bangkok 2019\n",
      "published_at": "2020-02-28T12:49:00.000+07:00",
      "tags": [
        {
          "id": "5e4a503b1876cb04e896eea3",
          "name": "android",
          "slug": "android",
          "description": "เราเป็นคนใช้แอนดรอยด์มาหลายปีดีดัก ตั้งแต่สมัยฝึกงานเลยนะเออ และก็เป็น Android Development จากตอนนั้นมาถึงตอนนี้",
          "feature_image": "https://images.unsplash.com/photo-1541345023926-55d6e0853f4b?ixlib=rb-1.2.1&q=80&fm=jpg&crop=entropy&cs=tinysrgb&w=2000&fit=max&ixid=eyJhcHBfaWQiOjExNzczfQ",
          "visibility": "public",
          "meta_title": null,
          "meta_description": null,
          "url": "https://www.mikkipastel.com/tag/android/"
        }
      ],
      "url": "https://www.mikkipastel.com/recommend-material-components-in-your-app/"
    },
    {
      "title": "ไปดูงานศิลปะชิวๆหลังเลิกงานที่งาน Glowfish Creators' Lab ที่ Glowfish สาธร phase 2",
      "feature_image": "https://www.mikkipastel.com/content/images/2020/02/IMG_20200206_181423.jpg",
      "custom_excerpt": "แน่นอนว่าเราจะไม่พลาดงาน Glowfish Creators' LAB - 15 art exhibitions + 1 workshop",
      "published_at": "2020-02-20T11:39:00.000+07:00",
      "tags": [
        {
          "id": "5e4b5a881876cb04e896f070",
          "name": "lifestyle",
          "slug": "lifestyle",
          "description": "เนื่องจากบล็อกนี้ไม่ใช่บล็อกที่นำเสนอเรื่อง IT หรือกิจกรรมต่างๆที่เข้าร่วมเพียงอย่างเดียว ดังนั้นจะมีเรื่องเกี่ยวกับ lifestyle อื่นๆด้วย เช่น การกิน ดูหนัง อ่านหนังสือ รีวิวของต่างๆ",
          "feature_image": "https://images.unsplash.com/photo-1533525801715-1f3764669187?ixlib=rb-1.2.1&q=80&fm=jpg&crop=entropy&cs=tinysrgb&w=2000&fit=max&ixid=eyJhcHBfaWQiOjExNzczfQ",
          "visibility": "public",
          "meta_title": null,
          "meta_description": null,
          "url": "https://www.mikkipastel.com/tag/lifestyle/"
        }
      ],
      "url": "https://www.mikkipastel.com/glowfish-creators-lab/"
    }
  ],
  "meta": {
    "pagination": {
      "page": 1,
      "limit": 15,
      "pages": 19,
      "total": 278,
      "next": 2,
      "prev": null
    }
  }
}